{
    "$schema": "http://json-schema.org/schema",
    "id": "configurar-eshop-schematic",
    "title": "Configurar la caracteristica EShop",
    "type": "object",
    "properties": {
      "proyecto": {
        "type": "string",
        "description": "Nombre del proyecto"
      },
      "catalogo": {
        "type": "boolean",
        "description": "Caracteristica 2. Catalogo",
        "default": false
      },
      "general": {
        "type": "boolean",
        "description": "Caracteristica 3. General",
        "default": false
      },
      "categorias": {
        "type": "boolean",
        "description": "Caracteristica 4. Categorias",
        "default": false
      },
      "buscador": {
        "type": "boolean",
        "description": "Caracteristica 5. Buscador",
        "default": false
      },
      "carrito": {
        "type": "boolean",
        "description": "Caracteristica 8. Carrito",
        "default": false
      },
      "medio_de_pago": {
        "type": "boolean",
        "description": "Caracteristica 11. Medio de pago",
        "default": false
      },
      "transferencia": {
        "type": "boolean",
        "description": "Caracteristica 12. Transferencia",
        "default": false
      },
      "tarjeta_de_credito": {
        "type": "boolean",
        "description": "Caracteristica 13. Tarjeta de credito",
        "default": false
      },
      "tarjeta_de_debito": {
        "type": "boolean",
        "description": "Caracteristica 14. Tarjeta de debito",
        "default": false
      },
      "paypal": {
        "type": "boolean",
        "description": "Caracteristica 15. Paypal",
        "default": false
      },
      "administracion": {
        "type": "boolean",
        "description": "Caracteristica 16. Administracion",
        "default": false
      }
    },
    "required": [],
    "additionalProperties": true
}